<svg width="23" height="23" viewBox="0 0 23 23" version="1.1" xmlns="http://www.w3.org/2000/svg" xmlns:xlink="http://www.w3.org/1999/xlink">
<title>Ico</title>
<desc>Created using Figma</desc>
<g id="Canvas" transform="translate(-640 -1429)">
<g id="Ico">
<use xlink:href="#path0_fill" transform="translate(640 1429)" fill="#2F80ED"/>
</g>
</g>
<defs>
<path id="path0_fill" d="M 11.5 -8.42285e-06C 5.14818 -8.42285e-06 1.04818e-05 5.14816 1.04818e-05 11.5C 1.04818e-05 17.8518 5.14818 23 11.5 23C 17.8518 23 23 17.8518 23 11.5C 22.9992 5.14816 17.8511 -8.42285e-06 11.5 -8.42285e-06ZM 11.5 21.4667C 6.00454 21.4667 1.53334 16.9955 1.53334 11.5C 1.53334 6.00452 6.00454 1.53332 11.5 1.53332C 16.9947 1.53332 21.4667 6.00452 21.4667 11.5C 21.4667 16.9955 16.9947 21.4667 11.5 21.4667ZM 11.5368 7.50183L 14.7675 10.7326L 4.84764 10.7326L 4.84764 12.2659L 14.7675 12.2659L 11.5368 15.4974L 12.6209 16.5815L 17.7023 11.4992L 12.6209 6.41776L 11.5368 7.50183Z"/>
</defs>
</svg>
